{
    "status": "success",
    "data": [
        { "id": 1, "name": "陳祈光", "height": 180, "weight": 90 },
        { "id": 2, "name": "林威儒", "height": 170, "weight": 70 },
        { "id": 3, "name": "施姿宇", "height": 172, "weight": 60 },
        { "id": 4, "name": "曾川佑", "height": 170, "weight": 60 },
        { "id": 5, "name": "張立昕", "height": 170, "weight": 80 },
        { "id": 6, "name": "胡士鑫", "height": 173, "weight": 60 },
        { "id": 7, "name": "陳佩琳", "height": 160, "weight": 45 }
    ]
}
